<mxfile host="app.diagrams.net" modified="2020-10-20T14:25:58.487Z" agent="5.0 (X11)" etag="7-pjD4Qf5TZq8hPSkAWi" version="13.8.1" type="gitlab">
  <diagram id="UtMHwiBVQ2cYxxNOmB_G" name="Page-1">
    <mxGraphModel dx="782" dy="775" grid="1" gridSize="10" guides="1" tooltips="1" connect="1" arrows="1" fold="1" page="1" pageScale="1" pageWidth="850" pageHeight="1100" math="0" shadow="0">
      <root>
        <mxCell id="0" />
        <mxCell id="1" parent="0" />
        <mxCell id="bZUFuxyb--fHuHojUTeg-9" style="edgeStyle=orthogonalEdgeStyle;rounded=0;orthogonalLoop=1;jettySize=auto;html=1;exitX=0.5;exitY=1;exitDx=0;exitDy=0;entryX=0.5;entryY=0;entryDx=0;entryDy=0;strokeWidth=2;" edge="1" parent="1" source="bZUFuxyb--fHuHojUTeg-1" target="bZUFuxyb--fHuHojUTeg-2">
          <mxGeometry relative="1" as="geometry" />
        </mxCell>
        <mxCell id="bZUFuxyb--fHuHojUTeg-1" value="&lt;font style=&quot;font-size: 18px&quot;&gt;Start&lt;/font&gt;" style="ellipse;whiteSpace=wrap;html=1;strokeWidth=2;fillColor=#dae8fc;strokeColor=#6c8ebf;" vertex="1" parent="1">
          <mxGeometry x="20" y="80" width="120" height="80" as="geometry" />
        </mxCell>
        <mxCell id="bZUFuxyb--fHuHojUTeg-10" style="edgeStyle=orthogonalEdgeStyle;rounded=0;orthogonalLoop=1;jettySize=auto;html=1;exitX=0.5;exitY=1;exitDx=0;exitDy=0;strokeWidth=2;" edge="1" parent="1" source="bZUFuxyb--fHuHojUTeg-2" target="bZUFuxyb--fHuHojUTeg-3">
          <mxGeometry relative="1" as="geometry" />
        </mxCell>
        <mxCell id="bZUFuxyb--fHuHojUTeg-2" value="&lt;font style=&quot;font-size: 18px&quot;&gt;Data&lt;/font&gt;" style="rounded=0;whiteSpace=wrap;html=1;strokeWidth=2;fillColor=#d5e8d4;strokeColor=#82b366;" vertex="1" parent="1">
          <mxGeometry x="20" y="190" width="120" height="60" as="geometry" />
        </mxCell>
        <mxCell id="bZUFuxyb--fHuHojUTeg-11" style="edgeStyle=orthogonalEdgeStyle;rounded=0;orthogonalLoop=1;jettySize=auto;html=1;exitX=0.5;exitY=1;exitDx=0;exitDy=0;entryX=0.5;entryY=0;entryDx=0;entryDy=0;strokeWidth=2;" edge="1" parent="1" source="bZUFuxyb--fHuHojUTeg-3" target="bZUFuxyb--fHuHojUTeg-4">
          <mxGeometry relative="1" as="geometry" />
        </mxCell>
        <mxCell id="bZUFuxyb--fHuHojUTeg-3" value="&lt;font style=&quot;font-size: 18px&quot;&gt;RSA&lt;/font&gt;" style="shape=parallelogram;perimeter=parallelogramPerimeter;whiteSpace=wrap;html=1;fixedSize=1;strokeWidth=2;fillColor=#f8cecc;strokeColor=#b85450;" vertex="1" parent="1">
          <mxGeometry x="20" y="280" width="120" height="60" as="geometry" />
        </mxCell>
        <mxCell id="bZUFuxyb--fHuHojUTeg-12" style="edgeStyle=orthogonalEdgeStyle;rounded=0;orthogonalLoop=1;jettySize=auto;html=1;exitX=0.5;exitY=1;exitDx=0;exitDy=0;strokeWidth=2;" edge="1" parent="1" source="bZUFuxyb--fHuHojUTeg-4" target="bZUFuxyb--fHuHojUTeg-5">
          <mxGeometry relative="1" as="geometry" />
        </mxCell>
        <mxCell id="bZUFuxyb--fHuHojUTeg-4" value="&lt;font style=&quot;font-size: 18px&quot;&gt;Encrypted data&lt;/font&gt;" style="rounded=0;whiteSpace=wrap;html=1;strokeWidth=2;fillColor=#d5e8d4;strokeColor=#82b366;" vertex="1" parent="1">
          <mxGeometry x="20" y="370" width="120" height="60" as="geometry" />
        </mxCell>
        <mxCell id="bZUFuxyb--fHuHojUTeg-13" style="edgeStyle=orthogonalEdgeStyle;rounded=0;orthogonalLoop=1;jettySize=auto;html=1;exitX=0.5;exitY=1;exitDx=0;exitDy=0;strokeWidth=2;" edge="1" parent="1" source="bZUFuxyb--fHuHojUTeg-5" target="bZUFuxyb--fHuHojUTeg-6">
          <mxGeometry relative="1" as="geometry" />
        </mxCell>
        <mxCell id="bZUFuxyb--fHuHojUTeg-5" value="&lt;font style=&quot;font-size: 18px&quot;&gt;Base64&lt;/font&gt;" style="shape=parallelogram;perimeter=parallelogramPerimeter;whiteSpace=wrap;html=1;fixedSize=1;strokeWidth=2;fillColor=#f8cecc;strokeColor=#b85450;" vertex="1" parent="1">
          <mxGeometry x="20" y="460" width="120" height="60" as="geometry" />
        </mxCell>
        <mxCell id="bZUFuxyb--fHuHojUTeg-14" style="edgeStyle=orthogonalEdgeStyle;rounded=0;orthogonalLoop=1;jettySize=auto;html=1;strokeWidth=2;" edge="1" parent="1" source="bZUFuxyb--fHuHojUTeg-6" target="bZUFuxyb--fHuHojUTeg-7">
          <mxGeometry relative="1" as="geometry" />
        </mxCell>
        <mxCell id="bZUFuxyb--fHuHojUTeg-6" value="&lt;font style=&quot;font-size: 18px&quot;&gt;Encrypted data in base 64&lt;/font&gt;" style="rounded=0;whiteSpace=wrap;html=1;strokeWidth=2;fillColor=#d5e8d4;strokeColor=#82b366;" vertex="1" parent="1">
          <mxGeometry x="5" y="550" width="150" height="60" as="geometry" />
        </mxCell>
        <mxCell id="bZUFuxyb--fHuHojUTeg-15" style="edgeStyle=orthogonalEdgeStyle;rounded=0;orthogonalLoop=1;jettySize=auto;html=1;exitX=0.5;exitY=1;exitDx=0;exitDy=0;entryX=0.5;entryY=0;entryDx=0;entryDy=0;strokeWidth=2;" edge="1" parent="1" source="bZUFuxyb--fHuHojUTeg-7" target="bZUFuxyb--fHuHojUTeg-8">
          <mxGeometry relative="1" as="geometry" />
        </mxCell>
        <mxCell id="bZUFuxyb--fHuHojUTeg-7" value="&lt;font style=&quot;font-size: 18px&quot;&gt;Obfuscation&lt;/font&gt;" style="shape=parallelogram;perimeter=parallelogramPerimeter;whiteSpace=wrap;html=1;fixedSize=1;strokeWidth=2;fillColor=#f8cecc;strokeColor=#b85450;" vertex="1" parent="1">
          <mxGeometry x="20" y="640" width="120" height="60" as="geometry" />
        </mxCell>
        <mxCell id="bZUFuxyb--fHuHojUTeg-17" value="&lt;font style=&quot;font-size: 18px&quot;&gt;End&lt;/font&gt;" style="ellipse;whiteSpace=wrap;html=1;strokeWidth=2;fillColor=#dae8fc;strokeColor=#6c8ebf;" vertex="1" parent="1">
          <mxGeometry x="320" y="80" width="120" height="80" as="geometry" />
        </mxCell>
        <mxCell id="bZUFuxyb--fHuHojUTeg-39" style="edgeStyle=orthogonalEdgeStyle;rounded=0;orthogonalLoop=1;jettySize=auto;html=1;exitX=0.5;exitY=0;exitDx=0;exitDy=0;strokeWidth=2;" edge="1" parent="1" source="bZUFuxyb--fHuHojUTeg-19" target="bZUFuxyb--fHuHojUTeg-17">
          <mxGeometry relative="1" as="geometry" />
        </mxCell>
        <mxCell id="bZUFuxyb--fHuHojUTeg-19" value="&lt;font style=&quot;font-size: 18px&quot;&gt;Data&lt;/font&gt;" style="rounded=0;whiteSpace=wrap;html=1;strokeWidth=2;fillColor=#d5e8d4;strokeColor=#82b366;" vertex="1" parent="1">
          <mxGeometry x="320" y="190" width="120" height="60" as="geometry" />
        </mxCell>
        <mxCell id="bZUFuxyb--fHuHojUTeg-37" value="" style="edgeStyle=orthogonalEdgeStyle;rounded=0;orthogonalLoop=1;jettySize=auto;html=1;strokeWidth=2;" edge="1" parent="1" source="bZUFuxyb--fHuHojUTeg-21" target="bZUFuxyb--fHuHojUTeg-19">
          <mxGeometry relative="1" as="geometry" />
        </mxCell>
        <mxCell id="bZUFuxyb--fHuHojUTeg-21" value="&lt;font style=&quot;font-size: 18px&quot;&gt;RSA&lt;/font&gt;" style="shape=parallelogram;perimeter=parallelogramPerimeter;whiteSpace=wrap;html=1;fixedSize=1;strokeWidth=2;fillColor=#f8cecc;strokeColor=#b85450;" vertex="1" parent="1">
          <mxGeometry x="320" y="280" width="120" height="60" as="geometry" />
        </mxCell>
        <mxCell id="bZUFuxyb--fHuHojUTeg-36" value="" style="edgeStyle=orthogonalEdgeStyle;rounded=0;orthogonalLoop=1;jettySize=auto;html=1;strokeWidth=2;" edge="1" parent="1" source="bZUFuxyb--fHuHojUTeg-23" target="bZUFuxyb--fHuHojUTeg-21">
          <mxGeometry relative="1" as="geometry" />
        </mxCell>
        <mxCell id="bZUFuxyb--fHuHojUTeg-23" value="&lt;font style=&quot;font-size: 18px&quot;&gt;Encrypted data&lt;/font&gt;" style="rounded=0;whiteSpace=wrap;html=1;strokeWidth=2;fillColor=#d5e8d4;strokeColor=#82b366;" vertex="1" parent="1">
          <mxGeometry x="320" y="370" width="120" height="60" as="geometry" />
        </mxCell>
        <mxCell id="bZUFuxyb--fHuHojUTeg-35" value="" style="edgeStyle=orthogonalEdgeStyle;rounded=0;orthogonalLoop=1;jettySize=auto;html=1;strokeWidth=2;" edge="1" parent="1" source="bZUFuxyb--fHuHojUTeg-25" target="bZUFuxyb--fHuHojUTeg-23">
          <mxGeometry relative="1" as="geometry" />
        </mxCell>
        <mxCell id="bZUFuxyb--fHuHojUTeg-25" value="&lt;font style=&quot;font-size: 18px&quot;&gt;Base64&lt;/font&gt;" style="shape=parallelogram;perimeter=parallelogramPerimeter;whiteSpace=wrap;html=1;fixedSize=1;strokeWidth=2;fillColor=#f8cecc;strokeColor=#b85450;" vertex="1" parent="1">
          <mxGeometry x="320" y="460" width="120" height="60" as="geometry" />
        </mxCell>
        <mxCell id="bZUFuxyb--fHuHojUTeg-33" style="edgeStyle=orthogonalEdgeStyle;rounded=0;orthogonalLoop=1;jettySize=auto;html=1;exitX=0.5;exitY=0;exitDx=0;exitDy=0;entryX=0.5;entryY=1;entryDx=0;entryDy=0;strokeWidth=2;" edge="1" parent="1" source="bZUFuxyb--fHuHojUTeg-29" target="bZUFuxyb--fHuHojUTeg-31">
          <mxGeometry relative="1" as="geometry" />
        </mxCell>
        <mxCell id="bZUFuxyb--fHuHojUTeg-29" value="&lt;font style=&quot;font-size: 18px&quot;&gt;Desobfuscation&lt;/font&gt;" style="shape=parallelogram;perimeter=parallelogramPerimeter;whiteSpace=wrap;html=1;fixedSize=1;strokeWidth=2;fillColor=#f8cecc;strokeColor=#b85450;" vertex="1" parent="1">
          <mxGeometry x="298.5" y="640" width="163" height="60" as="geometry" />
        </mxCell>
        <mxCell id="bZUFuxyb--fHuHojUTeg-32" style="edgeStyle=orthogonalEdgeStyle;rounded=0;orthogonalLoop=1;jettySize=auto;html=1;exitX=0.5;exitY=0;exitDx=0;exitDy=0;entryX=0.5;entryY=1;entryDx=0;entryDy=0;strokeWidth=2;" edge="1" parent="1" source="bZUFuxyb--fHuHojUTeg-30" target="bZUFuxyb--fHuHojUTeg-29">
          <mxGeometry relative="1" as="geometry" />
        </mxCell>
        <mxCell id="bZUFuxyb--fHuHojUTeg-34" style="edgeStyle=orthogonalEdgeStyle;rounded=0;orthogonalLoop=1;jettySize=auto;html=1;exitX=0.5;exitY=0;exitDx=0;exitDy=0;entryX=0.5;entryY=1;entryDx=0;entryDy=0;strokeWidth=2;" edge="1" parent="1" source="bZUFuxyb--fHuHojUTeg-31" target="bZUFuxyb--fHuHojUTeg-25">
          <mxGeometry relative="1" as="geometry" />
        </mxCell>
        <mxCell id="bZUFuxyb--fHuHojUTeg-31" value="&lt;font style=&quot;font-size: 18px&quot;&gt;Encrypted data in base 64&lt;/font&gt;" style="rounded=0;whiteSpace=wrap;html=1;strokeWidth=2;fillColor=#d5e8d4;strokeColor=#82b366;" vertex="1" parent="1">
          <mxGeometry x="305" y="550" width="150" height="60" as="geometry" />
        </mxCell>
        <mxCell id="bZUFuxyb--fHuHojUTeg-43" value="&lt;font style=&quot;font-size: 18px&quot;&gt;OpenFoodFact&lt;/font&gt;" style="text;html=1;fillColor=#e1d5e7;align=center;verticalAlign=middle;whiteSpace=wrap;rounded=0;perimeterSpacing=0;strokeColor=#9673a6;strokeWidth=2;gradientColor=#ffffff;" vertex="1" parent="1">
          <mxGeometry x="140" y="750" width="180" height="20" as="geometry" />
        </mxCell>
        <mxCell id="bZUFuxyb--fHuHojUTeg-30" value="&lt;font style=&quot;font-size: 18px&quot;&gt;Harmless text&lt;/font&gt;" style="rounded=0;whiteSpace=wrap;html=1;strokeWidth=2;fillColor=#d5e8d4;strokeColor=#82b366;" vertex="1" parent="1">
          <mxGeometry x="320" y="730" width="120" height="60" as="geometry" />
        </mxCell>
        <mxCell id="bZUFuxyb--fHuHojUTeg-8" value="&lt;font style=&quot;font-size: 18px&quot;&gt;Harmless text&lt;/font&gt;" style="rounded=0;whiteSpace=wrap;html=1;strokeWidth=2;fillColor=#d5e8d4;strokeColor=#82b366;" vertex="1" parent="1">
          <mxGeometry x="20" y="730" width="120" height="60" as="geometry" />
        </mxCell>
      </root>
    </mxGraphModel>
  </diagram>
</mxfile>
